<svg width="31" height="31" viewBox="0 0 31 31" fill="none" xmlns="http://www.w3.org/2000/svg">
<g clip-path="url(#clip0_2_0)">
  <path d="M25.1831 0H5.80911C2.60595 0 0 2.60595 0 5.80911V25.1831C0 28.394 2.60595 30.9922 5.80911 30.9922H15.1859V19.6377H11.1218V14.9222H15.1859V11.4476C15.1859 7.41456 17.66 5.21191 21.2587 5.21191C22.9805 5.21191 24.4618 5.336 24.8962 5.4058V9.61721H22.391C20.4288 9.61721 20.0643 10.5557 20.0643 11.9129V14.9299H24.7333L24.1128 19.6455H20.0643V31.0078H25.1831C28.394 31.0078 30.9922 28.4018 30.9922 25.1986V5.80911C31 2.60595 28.394 0 25.1831 0Z" fill="white"/>
</g>
<defs>
  <clipPath id="clip0_2_0">
    <rect width="31" height="31" fill="white"/>
  </clipPath>
</defs>
</svg>
