<svg width="38" height="31" viewBox="0 0 38 31" fill="none" xmlns="http://www.w3.org/2000/svg">
<g clip-path="url(#clip0_1_56)">
<path d="M34.6011 0H3.39889C1.11889 0 0 1.84158 0 4.01202C0 6.00707 2.13222 8.50636 3.65222 9.5587C6.94556 11.9264 10.26 14.3161 13.5533 16.7058C14.9256 17.7143 17.2689 19.7313 18.9789 19.7313H19H19.0211C20.7311 19.7313 23.0744 17.7143 24.4467 16.7058C27.74 14.3161 31.0544 11.9264 34.3689 9.5587C36.2478 8.22136 38 5.98515 38 3.5297C38 1.5785 36.4589 0 34.6011 0Z" fill="white"/>
<path d="M25.3122 19.512C23.5389 20.8713 21.3222 22.5594 19.0211 22.5594H19H18.9789C16.6778 22.5594 14.4611 20.8932 12.6878 19.512C9.22556 16.8812 5.65778 14.4038 2.13222 11.9045C1.35111 11.3564 0.633333 10.7206 0 9.99717V27.4922C0 29.4215 1.52 31.0219 3.39889 31.0219H34.6222C36.48 31.0219 38.0211 29.4434 38.0211 27.4922V9.99717C37.3878 10.7206 36.67 11.3564 35.91 11.9045C32.3422 14.4038 28.7744 16.9031 25.3122 19.512Z" fill="white"/>
</g>
<defs>
<clipPath id="clip0_1_56">
<rect width="38" height="31" fill="white"/>
</clipPath>
</defs>
</svg>
